ISO-10303-21;
HEADER;
FILE_DESCRIPTION(('STEP AP214'),'1');
FILE_NAME('/nfs2/vanderzee/MeshKit/oce/meshkit/data/pieceOfTorus01.stp','2016-01-04T16:42:51',('Cubit 14.9'),(' '),'Spatial InterOp 3D',' ',' ');
FILE_SCHEMA(('automotive_design'));
ENDSEC;
DATA;
#1=PRODUCT_DEFINITION_CONTEXT('',#9,'design');
#2=APPLICATION_PROTOCOL_DEFINITION('INTERNATIONAL STANDARD','automotive_design',1994,#9);
#3=PRODUCT_CATEGORY_RELATIONSHIP('NONE','NONE',#10,#11);
#4=SHAPE_DEFINITION_REPRESENTATION(#12,#13);
#5= (GEOMETRIC_REPRESENTATION_CONTEXT(3)GLOBAL_UNCERTAINTY_ASSIGNED_CONTEXT((#16))GLOBAL_UNIT_ASSIGNED_CONTEXT((#18,#19,#20))REPRESENTATION_CONTEXT('NONE','WORKSPACE'));
#9=APPLICATION_CONTEXT(' ');
#10=PRODUCT_CATEGORY('part','NONE');
#11=PRODUCT_RELATED_PRODUCT_CATEGORY('detail',' ',(#22));
#12=PRODUCT_DEFINITION_SHAPE('NONE','NONE',#23);
#13=MANIFOLD_SURFACE_SHAPE_REPRESENTATION('1',(#24,#25),#5);
#16=UNCERTAINTY_MEASURE_WITH_UNIT(LENGTH_MEASURE(1.0E-06),#18,'','');
#18= (CONVERSION_BASED_UNIT('MILLIMETRE',#28)LENGTH_UNIT()NAMED_UNIT(#31));
#19= (NAMED_UNIT(#33)PLANE_ANGLE_UNIT()SI_UNIT($,.RADIAN.));
#20= (NAMED_UNIT(#33)SOLID_ANGLE_UNIT()SI_UNIT($,.STERADIAN.));
#22=PRODUCT('1','1','PART-1-DESC',(#39));
#23=PRODUCT_DEFINITION('NONE','NONE',#40,#1);
#24=SHELL_BASED_SURFACE_MODEL('1',(#41));
#25=AXIS2_PLACEMENT_3D('',#42,#43,#44);
#28=LENGTH_MEASURE_WITH_UNIT(LENGTH_MEASURE(1.0),#45);
#31=DIMENSIONAL_EXPONENTS(1.0,0.0,0.0,0.0,0.0,0.0,0.0);
#33=DIMENSIONAL_EXPONENTS(0.0,0.0,0.0,0.0,0.0,0.0,0.0);
#39=PRODUCT_CONTEXT('',#9,'mechanical');
#40=PRODUCT_DEFINITION_FORMATION_WITH_SPECIFIED_SOURCE(' ','NONE',#22,.NOT_KNOWN.);
#41=CLOSED_SHELL('',(#46));
#42=CARTESIAN_POINT('',(0.0,0.0,0.0));
#43=DIRECTION('',(0.0,0.0,1.0));
#44=DIRECTION('',(1.0,0.0,0.0));
#45= (NAMED_UNIT(#31)LENGTH_UNIT()SI_UNIT(.MILLI.,.METRE.));
#46=FACE_SURFACE('',(#48),#49,.T.);
#48=FACE_BOUND('',#50,.T.);
#49=TOROIDAL_SURFACE('',#51,3.0,1.0);
#50=EDGE_LOOP('',(#52,#53,#54,#55));
#51=AXIS2_PLACEMENT_3D('',#56,#57,#58);
#52=ORIENTED_EDGE('',*,*,#59,.T.);
#53=ORIENTED_EDGE('',*,*,#60,.T.);
#54=ORIENTED_EDGE('',*,*,#61,.T.);
#55=ORIENTED_EDGE('',*,*,#62,.T.);
#56=CARTESIAN_POINT('',(0.0,0.0,0.0));
#57=DIRECTION('',(0.0,0.0,1.0));
#58=DIRECTION('',(1.0,0.0,0.0));
#59=EDGE_CURVE('',#63,#64,#65,.T.);
#60=EDGE_CURVE('',#64,#66,#67,.T.);
#61=EDGE_CURVE('',#66,#68,#69,.T.);
#62=EDGE_CURVE('',#68,#63,#70,.T.);
#63=VERTEX_POINT('',#71);
#64=VERTEX_POINT('',#72);
#65=CIRCLE('',#73,4.0);
#66=VERTEX_POINT('',#74);
#67=CIRCLE('',#75,1.0);
#68=VERTEX_POINT('',#76);
#69=CIRCLE('',#77,3.0);
#70=CIRCLE('',#78,1.0);
#71=CARTESIAN_POINT('',(4.0,-1.49975978266186E-32,2.44929359829471E-16));
#72=CARTESIAN_POINT('',(2.44929359829471E-16,4.0,1.22464679914735E-16));
#73=AXIS2_PLACEMENT_3D('',#79,#80,#81);
#74=CARTESIAN_POINT('',(2.44929359829471E-16,3.0,1.0));
#75=AXIS2_PLACEMENT_3D('',#82,#83,#84);
#76=CARTESIAN_POINT('',(3.0,-6.11531145498261E-17,1.0));
#77=AXIS2_PLACEMENT_3D('',#85,#86,#87);
#78=AXIS2_PLACEMENT_3D('',#88,#89,#90);
#79=CARTESIAN_POINT('',(0.0,0.0,1.22464679914735E-16));
#80=DIRECTION('',(0.0,0.0,1.0));
#81=DIRECTION('',(1.0,0.0,0.0));
#82=CARTESIAN_POINT('',(1.83697019872103E-16,3.0,0.0));
#83=DIRECTION('',(1.0,-6.12323399573676E-17,-6.12323399573676E-17));
#84=DIRECTION('',(6.12323399573676E-17,1.0,0.0));
#85=CARTESIAN_POINT('',(0.0,0.0,1.0));
#86=DIRECTION('',(0.0,-0.0,-1.0));
#87=DIRECTION('',(1.0,-2.03843715166087E-17,0.0));
#88=CARTESIAN_POINT('',(3.0,0.0,0.0));
#89=DIRECTION('',(-0.0,1.0,6.12323399573676E-17));
#90=DIRECTION('',(1.0,0.0,0.0));
ENDSEC;
END-ISO-10303-21;
